{
    "prepare_queue": {
        "installed": [],
        "uninstalled": []
    },
    "config_munge": {
        "files": {
            "res/xml/config.xml": {
                "parents": {
                    "/*": [
                        {
                            "xml": "<feature name=\"StatusBar\"><param name=\"android-package\" value=\"org.apache.cordova.statusbar.StatusBar\" /><param name=\"onload\" value=\"true\" /></feature>",
                            "count": 1
                        },
                        {
                            "xml": "<feature name=\"Device\"><param name=\"android-package\" value=\"org.apache.cordova.device.Device\" /></feature>",
                            "count": 1
                        },
                        {
                            "xml": "<feature name=\"BackgroundMode\"><param name=\"android-package\" value=\"de.appplant.cordova.plugin.background.BackgroundMode\" /></feature>",
                            "count": 1
                        },
                        {
                            "xml": "<preference name=\"KeepRunning\" value=\"true\" />",
                            "count": 1
                        },
                        {
                            "xml": "<feature name=\"LocalNotification\"><param name=\"android-package\" value=\"de.appplant.cordova.plugin.localnotification.LocalNotification\" /></feature>",
                            "count": 1
                        }
                    ]
                }
            },
            "AndroidManifest.xml": {
                "parents": {
                    "/manifest/application": [
                        {
                            "xml": "<service android:name=\"de.appplant.cordova.plugin.background.ForegroundService\" />",
                            "count": 1
                        },
                        {
                            "xml": "<receiver android:name=\"de.appplant.cordova.plugin.localnotification.Receiver\" />",
                            "count": 1
                        },
                        {
                            "xml": "<receiver android:name=\"de.appplant.cordova.plugin.localnotification.Restore\"><intent-filter><action android:name=\"android.intent.action.BOOT_COMPLETED\" /></intent-filter></receiver>",
                            "count": 1
                        },
                        {
                            "xml": "<activity android:launchMode=\"singleInstance\" android:name=\"de.appplant.cordova.plugin.localnotification.ReceiverActivity\" />",
                            "count": 1
                        }
                    ],
                    "/manifest": [
                        {
                            "xml": "<uses-permission android:name=\"android.permission.RECEIVE_BOOT_COMPLETED\" />",
                            "count": 1
                        }
                    ]
                }
            }
        }
    },
    "installed_plugins": {
        "org.apache.cordova.statusbar": {
            "PACKAGE_NAME": "com.iotech.amalnotifications"
        },
        "org.apache.cordova.device": {
            "PACKAGE_NAME": "com.iotech.amalnotifications"
        },
        "de.appplant.cordova.plugin.background-mode": {
            "PACKAGE_NAME": "com.iotech.amalnotifications"
        },
        "de.appplant.cordova.plugin.local-notification": {
            "PACKAGE_NAME": "com.iotech.amalnotifications"
        }
    },
    "dependent_plugins": {}
}